hw5.utf8.md
…
Find the daily sales liquor sales in Ames in 2019. Summarize the number of sales, volume of liquor sold, and amount of money spent.

ames %>%
  group_by(date_new) %>%
  summarise(money_spent = sum(`State Bottle Retail`), num_sales= sum(`Sale (Dollars)`), Volume_of_liq_sold = sum(`Volume Sold (Gallons)`))

## # A tibble: 264 x 4
##    date_new   money_spent num_sales Volume_of_liq_sold
##    <date>           <dbl>     <dbl>              <dbl>
##  1 2019-01-02     151890.  1071212.             18189.
##  2 2019-01-03     161431.  1166456.             19707.
##  3 2019-01-04     172769.  1379766.             23280.
##  4 2019-01-07     163149.  1400248.             23390.
##  5 2019-01-08     125562.   976662.             16838.
##  6 2019-01-09     142585.  1067435.             18686.
##  7 2019-01-10     107024.  1224052.             21640.
##  8 2019-01-11      72272.   548848.             10396 
##  9 2019-01-14     132650.  1120499.             18932.
## 10 2019-01-15     134461.  1025281.             18504.
## #  with 254 more rows
…
